Herramientas para el Procesamiento de la Encuesta de Turismo y Vivienda de los Hogares (EVyTH) • evyth
…
Descargar e instalar {evyth} en R del modo usual

install.packages('evyth')

Ejemplo

Un ejemplo básico de como usar la librería:

library(evyth)

# Descargo datos de primeros trimestres
evyth::descargar_microdato(anio = 2019, trimestre = 1)
#> # A tibble: 12,845 × 88
#>    id_ho…¹ id_vi…² miembro  anio trime…³ regio…⁴ aglom…⁵ regio…⁶ provi…⁷ local…⁸
#>      <dbl>   <int>   <int> <int>   <int>   <int>   <int>   <int>   <int> <chr>  
#>  1  230886   61201       1  2019       1       7      10       3       6 Sierra…
#>  2  230886   61201       2  2019       1       7      10       3       6 Sierra…
#>  3  230886   61201       3  2019       1       7      10       3       6 Sierra…
#>  4  230886   61201       4  2019       1       7      10       3       6 Sierra…
#>  5  230886   61201       5  2019       1       7      10       3       6 Sierra…
#>  6  230887   92201       1  2019       1       7      10       7      50 Potrer…
#>  7  230889   91201       1  2019       1       7      10       7      50 Potrer…
#>  8  230889   91201       2  2019       1       7      10       7      50 Potrer…
#>  9  230889   91201       3  2019       1       7      10       7      50 Potrer…
#> 10  230892   61201       1  2019       1       7      10       3       6 Villa …
#> # … with 12,835 more rows, 78 more variables: cod_loc_2001 <int>,
#> #   codigo_2001 <int>, codigo_2010 <int>, cod_prov_2010 <int>,
#> #   cod_depto_2010 <int>, cod_loc_2010 <int>, pondera <int>,
#> #   tipo_visitante <int>, cantidad_destinos <int>, multidestino <int>,
#> #   px06 <int>, px06_agrup <int>, px07 <int>, px07_agrup <int>, px08 <int>,
#> #   px08_agrup <int>, px09 <int>, px10_1 <int>, px11 <int>, px12_1 <int>,
#> #   px12_2 <int>, px12_3 <int>, px12_4 <int>, px12_5 <int>, px12_6 <int>, …
…
